{
    "AWSTemplateFormatVersion": "2010-09-09",
    "Description": "Create S3 bucket and SNS policy that send email when new objects are created",
    "Resources": {
        "S3Bucket": {
            "DeletionPolicy": "Retain",
            "DependsOn": "S3SNSTopicPolicy",
            "Properties": {
                "AccessControl": "Private",
                "BucketName": "skybrant-sample-bucket",
                "NotificationConfiguration": {
                    "TopicConfigurations": [
                        {
                            "Event": "s3:ObjectCreated:*",
                            "Topic": {
                                "Ref": "S3SNSTopic"
                            }
                        }
                    ]
                }
            },
            "Type": "AWS::S3::Bucket"
        },
        "S3SNSTopic": {
            "Properties": {
                "Subscription": [
                    {
                        "Endpoint": "codementor@sharppointsoftware.com",
                        "Protocol": "email"
                    }
                ],
                "TopicName": "S3SNS"
            },
            "Type": "AWS::SNS::Topic"
        },
        "S3SNSTopicPolicy": {
            "Properties": {
                "PolicyDocument": {
                    "Id": "AllowBucketToPublishToTopic",
                    "Statement": [
                        {
                            "Action": "sns:Publish",
                            "Condition": {
                                "ArnLike": {
                                    "aws:SourceArn": "arn:aws:s3:::skybrant-sample-bucket"
                                }
                            },
                            "Effect": "Allow",
                            "Principal": {
                                "Service": [
                                    "s3.amazonaws.com"
                                ]
                            },
                            "Resource": {
                                "Ref": "S3SNSTopic"
                            }
                        }
                    ],
                    "Version": "2012-10-17"
                },
                "Topics": [
                    {
                        "Ref": "S3SNSTopic"
                    }
                ]
            },
            "Type": "AWS::SNS::TopicPolicy"
        }
    }
}
